%YAML 1.1
%TAG !u! tag:unity3d.com,2011:
--- !u!29 &1
OcclusionCullingSettings:
  m_ObjectHideFlags: 0
  serializedVersion: 2
  m_OcclusionBakeSettings:
    smallestOccluder: 5
    smallestHole: 0.25
    backfaceThreshold: 100
  m_SceneGUID: 00000000000000000000000000000000
  m_OcclusionCullingData: {fileID: 0}
--- !u!104 &2
RenderSettings:
  m_ObjectHideFlags: 0
  serializedVersion: 9
  m_Fog: 0
  m_FogColor: {r: 0.5, g: 0.5, b: 0.5, a: 1}
  m_FogMode: 3
  m_FogDensity: 0.01
  m_LinearFogStart: 0
  m_LinearFogEnd: 300
  m_AmbientSkyColor: {r: 0.212, g: 0.227, b: 0.259, a: 1}
  m_AmbientEquatorColor: {r: 0.114, g: 0.125, b: 0.133, a: 1}
  m_AmbientGroundColor: {r: 0.047, g: 0.043, b: 0.035, a: 1}
  m_AmbientIntensity: 1
  m_AmbientMode: 0
  m_SubtractiveShadowColor: {r: 0.42, g: 0.478, b: 0.627, a: 1}
  m_SkyboxMaterial: {fileID: 10304, guid: 0000000000000000f000000000000000, type: 0}
  m_HaloStrength: 0.5
  m_FlareStrength: 1
  m_FlareFadeSpeed: 3
  m_HaloTexture: {fileID: 0}
  m_SpotCookie: {fileID: 10001, guid: 0000000000000000e000000000000000, type: 0}
  m_DefaultReflectionMode: 0
  m_DefaultReflectionResolution: 128
  m_ReflectionBounces: 1
  m_ReflectionIntensity: 1
  m_CustomReflection: {fileID: 0}
  m_Sun: {fileID: 0}
  m_IndirectSpecularColor: {r: 0, g: 0, b: 0, a: 1}
  m_UseRadianceAmbientProbe: 0
--- !u!157 &3
LightmapSettings:
  m_ObjectHideFlags: 0
  serializedVersion: 11
  m_GIWorkflowMode: 0
  m_GISettings:
    serializedVersion: 2
    m_BounceScale: 1
    m_IndirectOutputScale: 1
    m_AlbedoBoost: 1
    m_EnvironmentLightingMode: 0
    m_EnableBakedLightmaps: 1
    m_EnableRealtimeLightmaps: 1
  m_LightmapEditorSettings:
    serializedVersion: 12
    m_Resolution: 2
    m_BakeResolution: 40
    m_AtlasSize: 1024
    m_AO: 0
    m_AOMaxDistance: 1
    m_CompAOExponent: 1
    m_CompAOExponentDirect: 0
    m_ExtractAmbientOcclusion: 0
    m_Padding: 2
    m_LightmapParameters: {fileID: 0}
    m_LightmapsBakeMode: 1
    m_TextureCompression: 1
    m_FinalGather: 0
    m_FinalGatherFiltering: 1
    m_FinalGatherRayCount: 256
    m_ReflectionCompression: 2
    m_MixedBakeMode: 1
    m_BakeBackend: 0
    m_PVRSampling: 1
    m_PVRDirectSampleCount: 32
    m_PVRSampleCount: 512
    m_PVRBounces: 2
    m_PVREnvironmentSampleCount: 512
    m_PVREnvironmentReferencePointCount: 2048
    m_PVRFilteringMode: 0
    m_PVRDenoiserTypeDirect: 0
    m_PVRDenoiserTypeIndirect: 0
    m_PVRDenoiserTypeAO: 0
    m_PVRFilterTypeDirect: 0
    m_PVRFilterTypeIndirect: 0
    m_PVRFilterTypeAO: 0
    m_PVREnvironmentMIS: 0
    m_PVRCulling: 1
    m_PVRFilteringGaussRadiusDirect: 1
    m_PVRFilteringGaussRadiusIndirect: 5
    m_PVRFilteringGaussRadiusAO: 2
    m_PVRFilteringAtrousPositionSigmaDirect: 0.5
    m_PVRFilteringAtrousPositionSigmaIndirect: 2
    m_PVRFilteringAtrousPositionSigmaAO: 1
    m_ShowResolutionOverlay: 1
    m_ExportTrainingData: 0
  m_LightingDataAsset: {fileID: 0}
  m_UseShadowmask: 0
--- !u!196 &4
NavMeshSettings:
  serializedVersion: 2
  m_ObjectHideFlags: 0
  m_BuildSettings:
    serializedVersion: 2
    agentTypeID: 0
    agentRadius: 0.5
    agentHeight: 2
    agentSlope: 45
    agentClimb: 0.4
    ledgeDropHeight: 0
    maxJumpAcrossDistance: 0
    minRegionArea: 2
    manualCellSize: 0
    cellSize: 0.16666667
    manualTileSize: 0
    tileSize: 256
    accuratePlacement: 0
    debug:
      m_Flags: 0
  m_NavMeshData: {fileID: 0}
--- !u!1 &364094119
GameObject:
  m_ObjectHideFlags: 0
  m_CorrespondingSourceObject: {fileID: 0}
  m_PrefabInstance: {fileID: 0}
  m_PrefabAsset: {fileID: 0}
  serializedVersion: 6
  m_Component:
  - component: {fileID: 364094124}
  - component: {fileID: 364094123}
  - component: {fileID: 364094122}
  - component: {fileID: 364094121}
  - component: {fileID: 364094120}
  m_Layer: 0
  m_Name: Main Camera
  m_TagString: MainCamera
  m_Icon: {fileID: 0}
  m_NavMeshLayer: 0
  m_StaticEditorFlags: 0
  m_IsActive: 1
--- !u!81 &364094120
AudioListener:
  m_ObjectHideFlags: 0
  m_CorrespondingSourceObject: {fileID: 0}
  m_PrefabInstance: {fileID: 0}
  m_PrefabAsset: {fileID: 0}
  m_GameObject: {fileID: 364094119}
  m_Enabled: 1
--- !u!124 &364094121
Behaviour:
  m_ObjectHideFlags: 0
  m_CorrespondingSourceObject: {fileID: 0}
  m_PrefabInstance: {fileID: 0}
  m_PrefabAsset: {fileID: 0}
  m_GameObject: {fileID: 364094119}
  m_Enabled: 1
--- !u!92 &364094122
Behaviour:
  m_ObjectHideFlags: 0
  m_CorrespondingSourceObject: {fileID: 0}
  m_PrefabInstance: {fileID: 0}
  m_PrefabAsset: {fileID: 0}
  m_GameObject: {fileID: 364094119}
  m_Enabled: 1
--- !u!20 &364094123
Camera:
  m_ObjectHideFlags: 0
  m_CorrespondingSourceObject: {fileID: 0}
  m_PrefabInstance: {fileID: 0}
  m_PrefabAsset: {fileID: 0}
  m_GameObject: {fileID: 364094119}
  m_Enabled: 1
  serializedVersion: 2
  m_ClearFlags: 2
  m_BackGroundColor: {r: 1, g: 1, b: 1, a: 0}
  m_projectionMatrixMode: 1
  m_GateFitMode: 2
  m_FOVAxisMode: 0
  m_SensorSize: {x: 36, y: 24}
  m_LensShift: {x: 0, y: 0}
  m_FocalLength: 50
  m_NormalizedViewPortRect:
    serializedVersion: 2
    x: 0
    y: 0
    width: 1
    height: 1
  near clip plane: 0.3
  far clip plane: 1000
  field of view: 60
  orthographic: 0
  orthographic size: 5
  m_Depth: -1
  m_CullingMask:
    serializedVersion: 2
    m_Bits: 4294967295
  m_RenderingPath: -1
  m_TargetTexture: {fileID: 0}
  m_TargetDisplay: 0
  m_TargetEye: 3
  m_HDR: 0
  m_AllowMSAA: 1
  m_AllowDynamicResolution: 0
  m_ForceIntoRT: 0
  m_OcclusionCulling: 1
  m_StereoConvergence: 10
  m_StereoSeparation: 0.022
--- !u!4 &364094124
Transform:
  m_ObjectHideFlags: 0
  m_CorrespondingSourceObject: {fileID: 0}
  m_PrefabInstance: {fileID: 0}
  m_PrefabAsset: {fileID: 0}
  m_GameObject: {fileID: 364094119}
  m_LocalRotation: {x: -0.025699792, y: -0.97282344, z: 0.13327092, w: -0.1875979}
  m_LocalPosition: {x: -4.19502, y: 4.859029, z: 9.141095}
  m_LocalScale: {x: 1, y: 1, z: 1}
  m_Children: []
  m_Father: {fileID: 0}
  m_RootOrder: 0
  m_LocalEulerAnglesHint: {x: 15.549001, y: 158.42201, z: 0}
--- !u!1 &437912280
GameObject:
  m_ObjectHideFlags: 0
  m_CorrespondingSourceObject: {fileID: 0}
  m_PrefabInstance: {fileID: 0}
  m_PrefabAsset: {fileID: 0}
  serializedVersion: 6
  m_Component:
  - component: {fileID: 437912282}
  - component: {fileID: 437912281}
  m_Layer: 0
  m_Name: Directional Light
  m_TagString: Untagged
  m_Icon: {fileID: 0}
  m_NavMeshLayer: 0
  m_StaticEditorFlags: 0
  m_IsActive: 1
--- !u!108 &437912281
Light:
  m_ObjectHideFlags: 0
  m_CorrespondingSourceObject: {fileID: 0}
  m_PrefabInstance: {fileID: 0}
  m_PrefabAsset: {fileID: 0}
  m_GameObject: {fileID: 437912280}
  m_Enabled: 1
  serializedVersion: 9
  m_Type: 1
  m_Color: {r: 1, g: 0.95686275, b: 0.8392157, a: 1}
  m_Intensity: 1
  m_Range: 10
  m_SpotAngle: 30
  m_InnerSpotAngle: 21.80208
  m_CookieSize: 10
  m_Shadows:
    m_Type: 1
    m_Resolution: 3
    m_CustomResolution: -1
    m_Strength: 1
    m_Bias: 0
    m_NormalBias: 0
    m_NearPlane: 0.1
    m_CullingMatrixOverride:
      e00: 1
      e01: 0
      e02: 0
      e03: 0
      e10: 0
      e11: 1
      e12: 0
      e13: 0
      e20: 0
      e21: 0
      e22: 1
      e23: 0
      e30: 0
      e31: 0
      e32: 0
      e33: 1
    m_UseCullingMatrixOverride: 0
  m_Cookie: {fileID: 0}
  m_DrawHalo: 0
  m_Flare: {fileID: 0}
  m_RenderMode: 0
  m_CullingMask:
    serializedVersion: 2
    m_Bits: 4294967295
  m_RenderingLayerMask: 1
  m_Lightmapping: 4
  m_LightShadowCasterMode: 0
  m_AreaSize: {x: 1, y: 1}
  m_BounceIntensity: 1
  m_ColorTemperature: 6570
  m_UseColorTemperature: 0
  m_BoundingSphereOverride: {x: 0, y: 0, z: 0, w: 0}
  m_UseBoundingSphereOverride: 0
  m_ShadowRadius: 0
  m_ShadowAngle: 0
--- !u!4 &437912282
Transform:
  m_ObjectHideFlags: 0
  m_CorrespondingSourceObject: {fileID: 0}
  m_PrefabInstance: {fileID: 0}
  m_PrefabAsset: {fileID: 0}
  m_GameObject: {fileID: 437912280}
  m_LocalRotation: {x: -0.29812905, y: -0.6971577, z: 0.0753505, w: -0.64762074}
  m_LocalPosition: {x: 34.55, y: 1.06, z: -1.2}
  m_LocalScale: {x: 1, y: 1, z: 1}
  m_Children: []
  m_Father: {fileID: 0}
  m_RootOrder: 1
  m_LocalEulerAnglesHint: {x: 150.59799, y: -80.34799, z: 201.159}
--- !u!1001 &471749526
PrefabInstance:
  m_ObjectHideFlags: 0
  serializedVersion: 2
  m_Modification:
    m_TransformParent: {fileID: 0}
    m_Modifications:
    - target: {fileID: 4000013704310634, guid: 37456b387a522e545b146739ac3462d7, type: 3}
      propertyPath: m_LocalPosition.x
      value: 8.492959
      objectReference: {fileID: 0}
    - target: {fileID: 4000013704310634, guid: 37456b387a522e545b146739ac3462d7, type: 3}
      propertyPath: m_LocalPosition.y
      value: -2.163488
      objectReference: {fileID: 0}
    - target: {fileID: 4000013704310634, guid: 37456b387a522e545b146739ac3462d7, type: 3}
      propertyPath: m_LocalPosition.z
      value: 0.70340085
      objectReference: {fileID: 0}
    - target: {fileID: 4000013704310634, guid: 37456b387a522e545b146739ac3462d7, type: 3}
      propertyPath: m_LocalRotation.x
      value: -0.00801056
      objectReference: {fileID: 0}
    - target: {fileID: 4000013704310634, guid: 37456b387a522e545b146739ac3462d7, type: 3}
      propertyPath: m_LocalRotation.y
      value: 0.23290646
      objectReference: {fileID: 0}
    - target: {fileID: 4000013704310634, guid: 37456b387a522e545b146739ac3462d7, type: 3}
      propertyPath: m_LocalRotation.z
      value: -0.06859654
      objectReference: {fileID: 0}
    - target: {fileID: 4000013704310634, guid: 37456b387a522e545b146739ac3462d7, type: 3}
      propertyPath: m_LocalRotation.w
      value: 0.97004384
      objectReference: {fileID: 0}
    - target: {fileID: 4000013704310634, guid: 37456b387a522e545b146739ac3462d7, type: 3}
      propertyPath: m_RootOrder
      value: 3
      objectReference: {fileID: 0}
    - target: {fileID: 4000013704310634, guid: 37456b387a522e545b146739ac3462d7, type: 3}
      propertyPath: m_LocalEulerAnglesHint.x
      value: 0.93000007
      objectReference: {fileID: 0}
    - target: {fileID: 4000013704310634, guid: 37456b387a522e545b146739ac3462d7, type: 3}
      propertyPath: m_LocalEulerAnglesHint.y
      value: 26.833002
      objectReference: {fileID: 0}
    - target: {fileID: 4000013704310634, guid: 37456b387a522e545b146739ac3462d7, type: 3}
      propertyPath: m_LocalEulerAnglesHint.z
      value: -7.6530004
      objectReference: {fileID: 0}
    - target: {fileID: 4000013735243734, guid: 37456b387a522e545b146739ac3462d7, type: 3}
      propertyPath: m_LocalRotation.x
      value: 0.0000016819687
      objectReference: {fileID: 0}
    - target: {fileID: 4000013735243734, guid: 37456b387a522e545b146739ac3462d7, type: 3}
      propertyPath: m_LocalRotation.y
      value: -0.3789324
      objectReference: {fileID: 0}
    - target: {fileID: 4000013735243734, guid: 37456b387a522e545b146739ac3462d7, type: 3}
      propertyPath: m_LocalRotation.z
      value: -0.0000006742776
      objectReference: {fileID: 0}
    - target: {fileID: 4000013735243734, guid: 37456b387a522e545b146739ac3462d7, type: 3}
      propertyPath: m_LocalRotation.w
      value: 0.9254244
      objectReference: {fileID: 0}
    - target: {fileID: 4000013735243734, guid: 37456b387a522e545b146739ac3462d7, type: 3}
      propertyPath: m_LocalPosition.x
      value: -0.005777359
      objectReference: {fileID: 0}
    - target: {fileID: 4000013735243734, guid: 37456b387a522e545b146739ac3462d7, type: 3}
      propertyPath: m_LocalPosition.z
      value: 0.2442893
      objectReference: {fileID: 0}
    - target: {fileID: 4000013735243734, guid: 37456b387a522e545b146739ac3462d7, type: 3}
      propertyPath: m_LocalEulerAnglesHint.y
      value: -44.372
      objectReference: {fileID: 0}
    m_RemovedComponents: []
  m_SourcePrefab: {fileID: 100100000, guid: 37456b387a522e545b146739ac3462d7, type: 3}
--- !u!1001 &480158880
PrefabInstance:
  m_ObjectHideFlags: 0
  serializedVersion: 2
  m_Modification:
    m_TransformParent: {fileID: 0}
    m_Modifications:
    - target: {fileID: 4000013299107260, guid: 805bdcc7f0f044b4bb0bd6c9bd6067ee, type: 3}
      propertyPath: m_LocalPosition.x
      value: 4.2
      objectReference: {fileID: 0}
    - target: {fileID: 4000013299107260, guid: 805bdcc7f0f044b4bb0bd6c9bd6067ee, type: 3}
      propertyPath: m_LocalPosition.y
      value: 4.18
      objectReference: {fileID: 0}
    - target: {fileID: 4000013299107260, guid: 805bdcc7f0f044b4bb0bd6c9bd6067ee, type: 3}
      propertyPath: m_LocalPosition.z
      value: 0
      objectReference: {fileID: 0}
    - target: {fileID: 4000013299107260, guid: 805bdcc7f0f044b4bb0bd6c9bd6067ee, type: 3}
      propertyPath: m_LocalRotation.x
      value: -0.0018685316
      objectReference: {fileID: 0}
    - target: {fileID: 4000013299107260, guid: 805bdcc7f0f044b4bb0bd6c9bd6067ee, type: 3}
      propertyPath: m_LocalRotation.y
      value: -0.37166086
      objectReference: {fileID: 0}
    - target: {fileID: 4000013299107260, guid: 805bdcc7f0f044b4bb0bd6c9bd6067ee, type: 3}
      propertyPath: m_LocalRotation.z
      value: 0.0046673217
      objectReference: {fileID: 0}
    - target: {fileID: 4000013299107260, guid: 805bdcc7f0f044b4bb0bd6c9bd6067ee, type: 3}
      propertyPath: m_LocalRotation.w
      value: -0.928355
      objectReference: {fileID: 0}
    - target: {fileID: 4000013299107260, guid: 805bdcc7f0f044b4bb0bd6c9bd6067ee, type: 3}
      propertyPath: m_RootOrder
      value: 5
      objectReference: {fileID: 0}
    - target: {fileID: 4000013299107260, guid: 805bdcc7f0f044b4bb0bd6c9bd6067ee, type: 3}
      propertyPath: m_LocalEulerAnglesHint.z
      value: -0.40500003
      objectReference: {fileID: 0}
    - target: {fileID: 4000013299107260, guid: 805bdcc7f0f044b4bb0bd6c9bd6067ee, type: 3}
      propertyPath: m_LocalEulerAnglesHint.x
      value: 0.393
      objectReference: {fileID: 0}
    - target: {fileID: 4000013299107260, guid: 805bdcc7f0f044b4bb0bd6c9bd6067ee, type: 3}
      propertyPath: m_LocalEulerAnglesHint.y
      value: 403.609
      objectReference: {fileID: 0}
    - target: {fileID: 4000011946177872, guid: 805bdcc7f0f044b4bb0bd6c9bd6067ee, type: 3}
      propertyPath: m_LocalRotation.x
      value: 0.0000018054852
      objectReference: {fileID: 0}
    - target: {fileID: 4000011946177872, guid: 805bdcc7f0f044b4bb0bd6c9bd6067ee, type: 3}
      propertyPath: m_LocalRotation.y
      value: -0.06866762
      objectReference: {fileID: 0}
    - target: {fileID: 4000011946177872, guid: 805bdcc7f0f044b4bb0bd6c9bd6067ee, type: 3}
      propertyPath: m_LocalRotation.z
      value: -0.0000001238077
      objectReference: {fileID: 0}
    - target: {fileID: 4000011946177872, guid: 805bdcc7f0f044b4bb0bd6c9bd6067ee, type: 3}
      propertyPath: m_LocalRotation.w
      value: 0.99763966
      objectReference: {fileID: 0}
    - target: {fileID: 4000011946177872, guid: 805bdcc7f0f044b4bb0bd6c9bd6067ee, type: 3}
      propertyPath: m_LocalPosition.x
      value: -0.005777538
      objectReference: {fileID: 0}
    - target: {fileID: 4000011946177872, guid: 805bdcc7f0f044b4bb0bd6c9bd6067ee, type: 3}
      propertyPath: m_LocalPosition.y
      value: 2.156435
      objectReference: {fileID: 0}
    - target: {fileID: 4000011946177872, guid: 805bdcc7f0f044b4bb0bd6c9bd6067ee, type: 3}
      propertyPath: m_LocalPosition.z
      value: 0.24428919
      objectReference: {fileID: 0}
    - target: {fileID: 4000011946177872, guid: 805bdcc7f0f044b4bb0bd6c9bd6067ee, type: 3}
      propertyPath: m_LocalEulerAnglesHint.y
      value: -7.6630006
      objectReference: {fileID: 0}
    m_RemovedComponents: []
  m_SourcePrefab: {fileID: 100100000, guid: 805bdcc7f0f044b4bb0bd6c9bd6067ee, type: 3}
--- !u!1001 &971347002
PrefabInstance:
  m_ObjectHideFlags: 0
  serializedVersion: 2
  m_Modification:
    m_TransformParent: {fileID: 0}
    m_Modifications:
    - target: {fileID: 1000013128476604, guid: d4c6c2eef996d7f42aa64a85f49d1f8f, type: 3}
      propertyPath: m_Name
      value: Mini War Helicopter Black (1)
      objectReference: {fileID: 0}
    - target: {fileID: 4000013086788540, guid: d4c6c2eef996d7f42aa64a85f49d1f8f, type: 3}
      propertyPath: m_LocalPosition.x
      value: -0.11749
      objectReference: {fileID: 0}
    - target: {fileID: 4000013086788540, guid: d4c6c2eef996d7f42aa64a85f49d1f8f, type: 3}
      propertyPath: m_LocalPosition.y
      value: -0.32012
      objectReference: {fileID: 0}
    - target: {fileID: 4000013086788540, guid: d4c6c2eef996d7f42aa64a85f49d1f8f, type: 3}
      propertyPath: m_LocalPosition.z
      value: -0.99759
      objectReference: {fileID: 0}
    - target: {fileID: 4000013086788540, guid: d4c6c2eef996d7f42aa64a85f49d1f8f, type: 3}
      propertyPath: m_LocalRotation.x
      value: -0
      objectReference: {fileID: 0}
    - target: {fileID: 4000013086788540, guid: d4c6c2eef996d7f42aa64a85f49d1f8f, type: 3}
      propertyPath: m_LocalRotation.y
      value: 0.9999972
      objectReference: {fileID: 0}
    - target: {fileID: 4000013086788540, guid: d4c6c2eef996d7f42aa64a85f49d1f8f, type: 3}
      propertyPath: m_LocalRotation.z
      value: -0
      objectReference: {fileID: 0}
    - target: {fileID: 4000013086788540, guid: d4c6c2eef996d7f42aa64a85f49d1f8f, type: 3}
      propertyPath: m_LocalRotation.w
      value: -0.0023715363
      objectReference: {fileID: 0}
    - target: {fileID: 4000013086788540, guid: d4c6c2eef996d7f42aa64a85f49d1f8f, type: 3}
      propertyPath: m_RootOrder
      value: 2
      objectReference: {fileID: 0}
    - target: {fileID: 4000013086788540, guid: d4c6c2eef996d7f42aa64a85f49d1f8f, type: 3}
      propertyPath: m_LocalEulerAnglesHint.y
      value: 180.26399
      objectReference: {fileID: 0}
    - target: {fileID: 4000013086788540, guid: d4c6c2eef996d7f42aa64a85f49d1f8f, type: 3}
      propertyPath: m_LocalScale.x
      value: 1.130103
      objectReference: {fileID: 0}
    - target: {fileID: 4000013086788540, guid: d4c6c2eef996d7f42aa64a85f49d1f8f, type: 3}
      propertyPath: m_LocalScale.y
      value: 0.90585804
      objectReference: {fileID: 0}
    - target: {fileID: 4000013086788540, guid: d4c6c2eef996d7f42aa64a85f49d1f8f, type: 3}
      propertyPath: m_LocalScale.z
      value: 0.90585804
      objectReference: {fileID: 0}
    m_RemovedComponents: []
  m_SourcePrefab: {fileID: 100100000, guid: d4c6c2eef996d7f42aa64a85f49d1f8f, type: 3}
--- !u!1001 &1699833636
PrefabInstance:
  m_ObjectHideFlags: 0
  serializedVersion: 2
  m_Modification:
    m_TransformParent: {fileID: 0}
    m_Modifications:
    - target: {fileID: 4000011696866474, guid: 38a1c39a3b93949429327d6ed03d19bd, type: 3}
      propertyPath: m_LocalPosition.x
      value: -7
      objectReference: {fileID: 0}
    - target: {fileID: 4000011696866474, guid: 38a1c39a3b93949429327d6ed03d19bd, type: 3}
      propertyPath: m_LocalPosition.y
      value: -1.69
      objectReference: {fileID: 0}
    - target: {fileID: 4000011696866474, guid: 38a1c39a3b93949429327d6ed03d19bd, type: 3}
      propertyPath: m_LocalPosition.z
      value: -5
      objectReference: {fileID: 0}
    - target: {fileID: 4000011696866474, guid: 38a1c39a3b93949429327d6ed03d19bd, type: 3}
      propertyPath: m_LocalRotation.x
      value: -0
      objectReference: {fileID: 0}
    - target: {fileID: 4000011696866474, guid: 38a1c39a3b93949429327d6ed03d19bd, type: 3}
      propertyPath: m_LocalRotation.y
      value: 0.45970106
      objectReference: {fileID: 0}
    - target: {fileID: 4000011696866474, guid: 38a1c39a3b93949429327d6ed03d19bd, type: 3}
      propertyPath: m_LocalRotation.z
      value: -0
      objectReference: {fileID: 0}
    - target: {fileID: 4000011696866474, guid: 38a1c39a3b93949429327d6ed03d19bd, type: 3}
      propertyPath: m_LocalRotation.w
      value: 0.88807374
      objectReference: {fileID: 0}
    - target: {fileID: 4000011696866474, guid: 38a1c39a3b93949429327d6ed03d19bd, type: 3}
      propertyPath: m_RootOrder
      value: 4
      objectReference: {fileID: 0}
    - target: {fileID: 4000011696866474, guid: 38a1c39a3b93949429327d6ed03d19bd, type: 3}
      propertyPath: m_LocalEulerAnglesHint.y
      value: 54.517002
      objectReference: {fileID: 0}
    - target: {fileID: 4000012722904942, guid: 38a1c39a3b93949429327d6ed03d19bd, type: 3}
      propertyPath: m_LocalRotation.x
      value: 0.0000014705563
      objectReference: {fileID: 0}
    - target: {fileID: 4000012722904942, guid: 38a1c39a3b93949429327d6ed03d19bd, type: 3}
      propertyPath: m_LocalRotation.y
      value: 0.58301115
      objectReference: {fileID: 0}
    - target: {fileID: 4000012722904942, guid: 38a1c39a3b93949429327d6ed03d19bd, type: 3}
      propertyPath: m_LocalRotation.z
      value: 0.0000010552474
      objectReference: {fileID: 0}
    - target: {fileID: 4000012722904942, guid: 38a1c39a3b93949429327d6ed03d19bd, type: 3}
      propertyPath: m_LocalRotation.w
      value: 0.81246424
      objectReference: {fileID: 0}
    - target: {fileID: 4000012722904942, guid: 38a1c39a3b93949429327d6ed03d19bd, type: 3}
      propertyPath: m_LocalPosition.x
      value: -0.005777657
      objectReference: {fileID: 0}
    - target: {fileID: 4000012722904942, guid: 38a1c39a3b93949429327d6ed03d19bd, type: 3}
      propertyPath: m_LocalPosition.z
      value: 0.24428904
      objectReference: {fileID: 0}
    - target: {fileID: 4000012722904942, guid: 38a1c39a3b93949429327d6ed03d19bd, type: 3}
      propertyPath: m_LocalEulerAnglesHint.y
      value: 71.624
      objectReference: {fileID: 0}
    m_RemovedComponents: []
  m_SourcePrefab: {fileID: 100100000, guid: 38a1c39a3b93949429327d6ed03d19bd, type: 3}
--- !u!1001 &2093691573
PrefabInstance:
  m_ObjectHideFlags: 0
  serializedVersion: 2
  m_Modification:
    m_TransformParent: {fileID: 0}
    m_Modifications:
    - target: {fileID: 4000012315746190, guid: 2dde97c946c9e4244a4291037b65c5eb, type: 3}
      propertyPath: m_LocalPosition.x
      value: -5.62
      objectReference: {fileID: 0}
    - target: {fileID: 4000012315746190, guid: 2dde97c946c9e4244a4291037b65c5eb, type: 3}
      propertyPath: m_LocalPosition.y
      value: 4.17
      objectReference: {fileID: 0}
    - target: {fileID: 4000012315746190, guid: 2dde97c946c9e4244a4291037b65c5eb, type: 3}
      propertyPath: m_LocalPosition.z
      value: -5.59
      objectReference: {fileID: 0}
    - target: {fileID: 4000012315746190, guid: 2dde97c946c9e4244a4291037b65c5eb, type: 3}
      propertyPath: m_LocalRotation.x
      value: 0.15055642
      objectReference: {fileID: 0}
    - target: {fileID: 4000012315746190, guid: 2dde97c946c9e4244a4291037b65c5eb, type: 3}
      propertyPath: m_LocalRotation.y
      value: 0.18224205
      objectReference: {fileID: 0}
    - target: {fileID: 4000012315746190, guid: 2dde97c946c9e4244a4291037b65c5eb, type: 3}
      propertyPath: m_LocalRotation.z
      value: 0.08067062
      objectReference: {fileID: 0}
    - target: {fileID: 4000012315746190, guid: 2dde97c946c9e4244a4291037b65c5eb, type: 3}
      propertyPath: m_LocalRotation.w
      value: 0.9683041
      objectReference: {fileID: 0}
    - target: {fileID: 4000012315746190, guid: 2dde97c946c9e4244a4291037b65c5eb, type: 3}
      propertyPath: m_RootOrder
      value: 6
      objectReference: {fileID: 0}
    - target: {fileID: 4000012315746190, guid: 2dde97c946c9e4244a4291037b65c5eb, type: 3}
      propertyPath: m_LocalEulerAnglesHint.y
      value: 22.785002
      objectReference: {fileID: 0}
    - target: {fileID: 4000012315746190, guid: 2dde97c946c9e4244a4291037b65c5eb, type: 3}
      propertyPath: m_LocalEulerAnglesHint.x
      value: 15.146001
      objectReference: {fileID: 0}
    - target: {fileID: 4000012315746190, guid: 2dde97c946c9e4244a4291037b65c5eb, type: 3}
      propertyPath: m_LocalEulerAnglesHint.z
      value: 12.344001
      objectReference: {fileID: 0}
    - target: {fileID: 4000014050065546, guid: 2dde97c946c9e4244a4291037b65c5eb, type: 3}
      propertyPath: m_LocalRotation.x
      value: -0.12857987
      objectReference: {fileID: 0}
    - target: {fileID: 4000014050065546, guid: 2dde97c946c9e4244a4291037b65c5eb, type: 3}
      propertyPath: m_LocalRotation.y
      value: -0.000000014901163
      objectReference: {fileID: 0}
    - target: {fileID: 4000014050065546, guid: 2dde97c946c9e4244a4291037b65c5eb, type: 3}
      propertyPath: m_LocalRotation.z
      value: -0.0000000074505815
      objectReference: {fileID: 0}
    - target: {fileID: 4000014050065546, guid: 2dde97c946c9e4244a4291037b65c5eb, type: 3}
      propertyPath: m_LocalRotation.w
      value: 0.99169916
      objectReference: {fileID: 0}
    - target: {fileID: 4000014050065546, guid: 2dde97c946c9e4244a4291037b65c5eb, type: 3}
      propertyPath: m_LocalPosition.x
      value: -0.30443835
      objectReference: {fileID: 0}
    - target: {fileID: 4000014050065546, guid: 2dde97c946c9e4244a4291037b65c5eb, type: 3}
      propertyPath: m_LocalPosition.y
      value: 1.398326
      objectReference: {fileID: 0}
    - target: {fileID: 4000014050065546, guid: 2dde97c946c9e4244a4291037b65c5eb, type: 3}
      propertyPath: m_LocalPosition.z
      value: -5.562539
      objectReference: {fileID: 0}
    - target: {fileID: 4000014050065546, guid: 2dde97c946c9e4244a4291037b65c5eb, type: 3}
      propertyPath: m_LocalEulerAnglesHint.x
      value: -14.722001
      objectReference: {fileID: 0}
    - target: {fileID: 4000011978791720, guid: 2dde97c946c9e4244a4291037b65c5eb, type: 3}
      propertyPath: m_LocalRotation.x
      value: 0.00000046100473
      objectReference: {fileID: 0}
    - target: {fileID: 4000011978791720, guid: 2dde97c946c9e4244a4291037b65c5eb, type: 3}
      propertyPath: m_LocalRotation.y
      value: 0.9697639
      objectReference: {fileID: 0}
    - target: {fileID: 4000011978791720, guid: 2dde97c946c9e4244a4291037b65c5eb, type: 3}
      propertyPath: m_LocalRotation.z
      value: 0.0000017285349
      objectReference: {fileID: 0}
    - target: {fileID: 4000011978791720, guid: 2dde97c946c9e4244a4291037b65c5eb, type: 3}
      propertyPath: m_LocalRotation.w
      value: 0.2440452
      objectReference: {fileID: 0}
    - target: {fileID: 4000011978791720, guid: 2dde97c946c9e4244a4291037b65c5eb, type: 3}
      propertyPath: m_LocalPosition.x
      value: -0.005777657
      objectReference: {fileID: 0}
    - target: {fileID: 4000011978791720, guid: 2dde97c946c9e4244a4291037b65c5eb, type: 3}
      propertyPath: m_LocalPosition.y
      value: 2.1564353
      objectReference: {fileID: 0}
    - target: {fileID: 4000011978791720, guid: 2dde97c946c9e4244a4291037b65c5eb, type: 3}
      propertyPath: m_LocalPosition.z
      value: 0.24428916
      objectReference: {fileID: 0}
    - target: {fileID: 4000011978791720, guid: 2dde97c946c9e4244a4291037b65c5eb, type: 3}
      propertyPath: m_LocalEulerAnglesHint.y
      value: 151.804
      objectReference: {fileID: 0}
    m_RemovedComponents: []
  m_SourcePrefab: {fileID: 100100000, guid: 2dde97c946c9e4244a4291037b65c5eb, type: 3}
